…
#### 22\. Create a dataset containing variables with standard deviation greater than 10. Call this data d1

``` r
d1 <- c2015 %>% 
    select_if(is.numeric) %>% 
      select_if(~sd(.,na.rm=T) >10)
d1
```

    ## # A tibble: 26,038 x 6
    ##    ST_CASE COUNTY MINUTE   AGE TRAV_SP LONGITUD
    ##      <dbl>  <dbl>  <dbl> <dbl>   <dbl>    <dbl>
    ##  1   10001    127     40    68      55    -87.3
    ##  2   10002     83     13    49      70    -86.9
    ##  3   10003     11     25    31      80    -85.8
    ##  4   10003     11     25    20      80    -85.8
    ##  5   10004     45     57    40      75    -85.5
    ##  6   10005     45      9    24      15    -85.5
    ##  7   10005     45      9    60      65    -85.5
    ##  8   10006    111     59    64      45    -85.4
    ##  9   10006    111     59    17      45    -85.4
    ## 10   10010     33     45    80      30    -87.6
    ## # ... with 26,028 more rows
…
